{
    "Username": "qa@ifm360.com",
    "LastName": "QATest",
    "Email": "tester1@sfdx.org",
    "Alias": "testuser",
    "TimeZoneSidKey": "Europe/Berlin",
    "LocaleSidKey": "en_US",
    "EmailEncodingKey": "UTF-8",
    "LanguageLocaleKey": "en_US",
    "profileName": "ifm - Integration",
    "permsets": [],
    "generatePassword": true
}